<?xml version="1.0" encoding="UTF-8" standalone="no"?>
<!-- Generated by Graphviz version 2.12 (Thu Jul 24 06:12:25 UTC 2008)
     For user: (markwkm)  -->
<!-- Title: g Pages: 1 -->
<svg
   xmlns:dc="http://purl.org/dc/elements/1.1/"
   xmlns:cc="http://creativecommons.org/ns#"
   xmlns:rdf="http://www.w3.org/1999/02/22-rdf-syntax-ns#"
   xmlns:svg="http://www.w3.org/2000/svg"
   xmlns="http://www.w3.org/2000/svg"
   xmlns:sodipodi="http://sodipodi.sourceforge.net/DTD/sodipodi-0.dtd"
   xmlns:inkscape="http://www.inkscape.org/namespaces/inkscape"
   width="1024"
   height="640"
   id="svg2969"
   sodipodi:version="0.32"
   inkscape:version="0.46"
   sodipodi:docname="dbt2-stock-level.svg"
   inkscape:output_extension="org.inkscape.output.svg.inkscape"
   version="1.0"
   inkscape:export-filename="/Volumes/markwkm/Documents/presentations/performance-tuning/dbt2/dbt2-schema.png"
   inkscape:export-xdpi="90"
   inkscape:export-ydpi="90">
  <metadata
     id="metadata3244">
    <rdf:RDF>
      <cc:Work
         rdf:about="">
        <dc:format>image/svg+xml</dc:format>
        <dc:type
           rdf:resource="http://purl.org/dc/dcmitype/StillImage" />
      </cc:Work>
    </rdf:RDF>
  </metadata>
  <defs
     id="defs3242">
    <inkscape:perspective
       sodipodi:type="inkscape:persp3d"
       inkscape:vp_x="0 : 353.25 : 1"
       inkscape:vp_y="0 : 1000 : 0"
       inkscape:vp_z="829.80005 : 353.25 : 1"
       inkscape:persp3d-origin="414.90002 : 235.5 : 1"
       id="perspective3246" />
    <title
       id="title2972">g</title>
    <title
       id="title2977">customer</title>
    <title
       id="title3118">order_line</title>
    <title
       id="title3028">district</title>
    <title
       id="title3172">stock</title>
  </defs>
  <sodipodi:namedview
     inkscape:window-height="752"
     inkscape:window-width="1024"
     inkscape:pageshadow="2"
     inkscape:pageopacity="0.0"
     guidetolerance="10.0"
     gridtolerance="10.0"
     objecttolerance="10.0"
     borderopacity="1.0"
     bordercolor="#666666"
     pagecolor="#ffffff"
     id="base"
     showgrid="false"
     inkscape:zoom="0.8390625"
     inkscape:cx="632.62235"
     inkscape:cy="320"
     inkscape:window-x="0"
     inkscape:window-y="22"
     inkscape:current-layer="svg2969" />
  <g
     class="node"
     id="node3"
     transform="matrix(1.33333,0,0,1.33333,116.89023,735.57787)"
     inkscape:export-xdpi="90"
     inkscape:export-ydpi="90">
    <title
       id="title3059">history</title>
    <rect
       style="opacity:1;fill:#000000;fill-opacity:1;stroke:none;stroke-width:0.75436258000000000;stroke-miterlimit:4;stroke-dasharray:none;stroke-opacity:1"
       id="rect3460"
       width="767.24756"
       height="479.24683"
       x="-87.290741"
       y="-551.30762"
       inkscape:export-filename="/Volumes/markwkm/Documents/presentations/performance-tuning/dbt2/dbt2-schema.png"
       inkscape:export-xdpi="90"
       inkscape:export-ydpi="90" />
    <polygon
       id="polygon3061"
       points="73,-415 73,-539 237,-539 237,-415 73,-415 "
       style="fill:none;stroke:#ffffff;fill-opacity:1;stroke-opacity:1" />
    <text
       id="text3063"
       style="font-size:10.12500000000000000px;text-anchor:middle;font-family:Nimbus Roman No9 L;fill:#ffffff;fill-opacity:1"
       y="-525"
       x="155">history</text>
    <polyline
       id="polyline3065"
       points="73,-519 237,-519 "
       style="fill:none;stroke:#ffffff;stroke-opacity:1" />
    <text
       id="text3067"
       style="font-size:10.12500000000000000px;text-anchor:start;font-family:Nimbus Roman No9 L;fill:#ffffff;fill-opacity:1"
       y="-505"
       x="81">h_c_id: integer</text>
    <text
       id="text3069"
       style="font-size:10.12500000000000000px;text-anchor:start;font-family:Nimbus Roman No9 L;fill:#ffffff;fill-opacity:1"
       y="-493"
       x="81">h_c_d_id: integer</text>
    <text
       id="text3071"
       style="font-size:10.12500000000000000px;text-anchor:start;font-family:Nimbus Roman No9 L;fill:#ffffff;fill-opacity:1"
       y="-481"
       x="81">h_c_w_id: integer</text>
    <text
       id="text3073"
       style="font-size:10.12500000000000000px;text-anchor:start;font-family:Nimbus Roman No9 L;fill:#ffffff;fill-opacity:1"
       y="-469"
       x="81">h_d_id: integer</text>
    <text
       id="text3075"
       style="font-size:10.12500000000000000px;text-anchor:start;font-family:Nimbus Roman No9 L;fill:#ffffff;fill-opacity:1"
       y="-457"
       x="81">h_w_id: integer</text>
    <text
       id="text3077"
       style="font-size:10.12500000000000000px;text-anchor:start;font-family:Nimbus Roman No9 L;fill:#ffffff;fill-opacity:1"
       y="-445"
       x="81">h_date: timestamp without time zone</text>
    <text
       id="text3079"
       style="font-size:10.12500000000000000px;text-anchor:start;font-family:Nimbus Roman No9 L;fill:#ffffff;fill-opacity:1"
       y="-433"
       x="81">h_amount: real</text>
    <text
       id="text3081"
       style="font-size:10.12500000000000000px;text-anchor:start;font-family:Nimbus Roman No9 L;fill:#ffffff;fill-opacity:1"
       y="-421"
       x="81">h_data: character varying(24)</text>
  </g>
  <polygon
     style="fill:none;stroke:#ffffff;stroke-opacity:1"
     points="163,-91 163,-371 331,-371 331,-91 163,-91 "
     id="polygon2979"
     transform="matrix(1.33333,0,0,1.33333,98.55211,740.1624)" />
  <text
     x="427.88461"
     y="264.1636"
     style="font-size:13.49996662px;text-anchor:middle;fill:#ffffff;fill-opacity:1;font-family:Nimbus Roman No9 L"
     id="text2981">customer</text>
  <polyline
     style="fill:none;stroke:#ffffff;stroke-opacity:1"
     points="163,-351 331,-351 "
     id="polyline2983"
     transform="matrix(1.33333,0,0,1.33333,98.55211,740.1624)" />
  <text
     x="326.55154"
     y="290.8302"
     style="font-size:13.49996662px;text-anchor:start;fill:#ffffff;fill-opacity:1;font-family:Nimbus Roman No9 L"
     id="text2985">c_id: integer</text>
  <text
     x="326.55154"
     y="306.83014"
     style="font-size:13.49996662px;text-anchor:start;fill:#ffffff;fill-opacity:1;font-family:Nimbus Roman No9 L"
     id="text2987">c_d_id: integer</text>
  <text
     x="326.55154"
     y="322.83011"
     style="font-size:13.49996662px;text-anchor:start;fill:#ffffff;fill-opacity:1;font-family:Nimbus Roman No9 L"
     id="text2989">c_w_id: integer</text>
  <text
     x="326.55154"
     y="338.83008"
     style="font-size:13.49996662px;text-anchor:start;fill:#ffffff;fill-opacity:1;font-family:Nimbus Roman No9 L"
     id="text2991">c_first: character varying(16)</text>
  <text
     x="326.55154"
     y="354.83002"
     style="font-size:13.49996662px;text-anchor:start;fill:#ffffff;fill-opacity:1;font-family:Nimbus Roman No9 L"
     id="text2993">c_middle: character(2)</text>
  <text
     x="326.55154"
     y="370.82999"
     style="font-size:13.49996662px;text-anchor:start;fill:#ffffff;fill-opacity:1;font-family:Nimbus Roman No9 L"
     id="text2995">c_last: character varying(16)</text>
  <text
     x="326.55154"
     y="386.82996"
     style="font-size:13.49996662px;text-anchor:start;fill:#ffffff;fill-opacity:1;font-family:Nimbus Roman No9 L"
     id="text2997">c_street_1: character varying(20)</text>
  <text
     x="326.55154"
     y="402.8299"
     style="font-size:13.49996662px;text-anchor:start;fill:#ffffff;fill-opacity:1;font-family:Nimbus Roman No9 L"
     id="text2999">c_street_2: character varying(20)</text>
  <text
     x="326.55154"
     y="418.82986"
     style="font-size:13.49996662px;text-anchor:start;fill:#ffffff;fill-opacity:1;font-family:Nimbus Roman No9 L"
     id="text3001">c_city: character varying(20)</text>
  <text
     x="326.55154"
     y="434.82983"
     style="font-size:13.49996662px;text-anchor:start;fill:#ffffff;fill-opacity:1;font-family:Nimbus Roman No9 L"
     id="text3003">c_state: character(2)</text>
  <text
     x="326.55154"
     y="450.8298"
     style="font-size:13.49996662px;text-anchor:start;fill:#ffffff;fill-opacity:1;font-family:Nimbus Roman No9 L"
     id="text3005">c_zip: character(9)</text>
  <text
     x="326.55154"
     y="466.82974"
     style="font-size:13.49996662px;text-anchor:start;fill:#ffffff;fill-opacity:1;font-family:Nimbus Roman No9 L"
     id="text3007">c_phone: character(16)</text>
  <text
     x="326.55154"
     y="482.82971"
     style="font-size:13.49996662px;text-anchor:start;fill:#ffffff;fill-opacity:1;font-family:Nimbus Roman No9 L"
     id="text3009">c_since: timestamp without time zone</text>
  <text
     x="326.55154"
     y="498.82968"
     style="font-size:13.49996662px;text-anchor:start;fill:#ffffff;fill-opacity:1;font-family:Nimbus Roman No9 L"
     id="text3011">c_credit: character(2)</text>
  <text
     x="326.55154"
     y="514.82965"
     style="font-size:13.49996662px;text-anchor:start;fill:#ffffff;fill-opacity:1;font-family:Nimbus Roman No9 L"
     id="text3013">c_credit_lim: numeric(24,12)</text>
  <text
     x="326.55154"
     y="530.82959"
     style="font-size:13.49996662px;text-anchor:start;fill:#ffffff;fill-opacity:1;font-family:Nimbus Roman No9 L"
     id="text3015">c_discount: real</text>
  <text
     x="326.55154"
     y="546.82953"
     style="font-size:13.49996662px;text-anchor:start;fill:#ffffff;fill-opacity:1;font-family:Nimbus Roman No9 L"
     id="text3017">c_balance: numeric(24,12)</text>
  <text
     x="326.55154"
     y="562.82953"
     style="font-size:13.49996662px;text-anchor:start;fill:#ffffff;fill-opacity:1;font-family:Nimbus Roman No9 L"
     id="text3019">c_ytd_payment: numeric(24,12)</text>
  <text
     x="326.55154"
     y="578.82947"
     style="font-size:13.49996662px;text-anchor:start;fill:#ffffff;fill-opacity:1;font-family:Nimbus Roman No9 L"
     id="text3021">c_payment_cnt: real</text>
  <text
     x="326.55154"
     y="594.82941"
     style="font-size:13.49996662px;text-anchor:start;fill:#ffffff;fill-opacity:1;font-family:Nimbus Roman No9 L"
     id="text3023">c_delivery_cnt: real</text>
  <text
     x="326.55154"
     y="610.82941"
     style="font-size:13.49996662px;text-anchor:start;fill:#ffffff;fill-opacity:1;font-family:Nimbus Roman No9 L"
     id="text3025">c_data: character varying(500)</text>
  <polygon
     style="fill:none;stroke:#00ffff;stroke-opacity:1;stroke-width:3.0000075;stroke-miterlimit:4;stroke-dasharray:none"
     points="253,-397 253,-557 402,-557 402,-397 253,-397 "
     id="polygon3030"
     transform="matrix(1.33333,0,0,1.33333,138.28471,756.97234)" />
  <text
     x="574.28363"
     y="32.974152"
     style="font-size:13.49996662px;text-anchor:middle;fill:#ffffff;fill-opacity:1;stroke:none;stroke-opacity:1;font-family:Nimbus Roman No9 L"
     id="text3032">district</text>
  <polyline
     style="fill:none;stroke:#ffffff;stroke-opacity:1"
     points="253,-537 402,-537 "
     id="polyline3034"
     transform="matrix(1.33333,0,0,1.33333,138.28471,756.97234)" />
  <text
     x="484.9505"
     y="59.640751"
     style="font-size:13.49996662px;text-anchor:start;fill:#ffffff;fill-opacity:1;stroke:none;stroke-opacity:1;font-family:Nimbus Roman No9 L"
     id="text3036">d_id: integer</text>
  <text
     x="484.9505"
     y="75.640709"
     style="font-size:13.49996662px;text-anchor:start;fill:#ffffff;fill-opacity:1;stroke:none;stroke-opacity:1;font-family:Nimbus Roman No9 L"
     id="text3038">d_w_id: integer</text>
  <text
     x="484.9505"
     y="91.640671"
     style="font-size:13.49996662px;text-anchor:start;fill:#ffffff;fill-opacity:1;stroke:none;stroke-opacity:1;font-family:Nimbus Roman No9 L"
     id="text3040">d_name: character varying(10)</text>
  <text
     x="484.9505"
     y="107.64063"
     style="font-size:13.49996662px;text-anchor:start;fill:#ffffff;fill-opacity:1;stroke:none;stroke-opacity:1;font-family:Nimbus Roman No9 L"
     id="text3042">d_street_1: character varying(20)</text>
  <text
     x="484.9505"
     y="123.64059"
     style="font-size:13.49996662px;text-anchor:start;fill:#ffffff;fill-opacity:1;stroke:none;stroke-opacity:1;font-family:Nimbus Roman No9 L"
     id="text3044">d_street_2: character varying(20)</text>
  <text
     x="484.9505"
     y="139.64055"
     style="font-size:13.49996662px;text-anchor:start;fill:#ffffff;fill-opacity:1;stroke:none;stroke-opacity:1;font-family:Nimbus Roman No9 L"
     id="text3046">d_city: character varying(20)</text>
  <text
     x="484.9505"
     y="155.6405"
     style="font-size:13.49996662px;text-anchor:start;fill:#ffffff;fill-opacity:1;stroke:none;stroke-opacity:1;font-family:Nimbus Roman No9 L"
     id="text3048">d_state: character(2)</text>
  <text
     x="484.9505"
     y="171.64047"
     style="font-size:13.49996662px;text-anchor:start;fill:#ffffff;fill-opacity:1;stroke:none;stroke-opacity:1;font-family:Nimbus Roman No9 L"
     id="text3050">d_zip: character(9)</text>
  <text
     x="484.9505"
     y="187.64043"
     style="font-size:13.49996662px;text-anchor:start;fill:#ffffff;fill-opacity:1;stroke:none;stroke-opacity:1;font-family:Nimbus Roman No9 L"
     id="text3052">d_tax: real</text>
  <text
     x="484.9505"
     y="203.6404"
     style="font-size:13.49996662px;text-anchor:start;fill:#ffffff;fill-opacity:1;stroke:none;stroke-opacity:1;font-family:Nimbus Roman No9 L"
     id="text3054">d_ytd: numeric(24,12)</text>
  <text
     x="484.9505"
     y="219.64035"
     style="font-size:13.49996662px;text-anchor:start;fill:#ffffff;fill-opacity:1;stroke:none;stroke-opacity:1;font-family:Nimbus Roman No9 L"
     id="text3056">d_next_o_id: integer</text>
  <g
     class="node"
     id="node4"
     transform="matrix(1.33333,0,0,1.33333,66.460396,724.88062)">
    <title
       id="title3084">item</title>
    <polygon
       id="polygon3086"
       points="1,-307 1,-395 138,-395 138,-307 1,-307 "
       style="fill:none;stroke:#ffffff;stroke-opacity:1" />
    <text
       id="text3088"
       style="font-size:10.12500000000000000px;text-anchor:middle;font-family:Nimbus Roman No9 L;fill:#ffffff;fill-opacity:1"
       y="-381"
       x="69">item</text>
    <polyline
       id="polyline3090"
       points="1,-375 138,-375 "
       style="fill:none;stroke:#ffffff;stroke-opacity:1" />
    <text
       id="text3092"
       style="font-size:10.12500000000000000px;text-anchor:start;font-family:Nimbus Roman No9 L;fill:#ffffff;fill-opacity:1"
       y="-361"
       x="8">i_id: integer</text>
    <text
       id="text3094"
       style="font-size:10.12500000000000000px;text-anchor:start;font-family:Nimbus Roman No9 L;fill:#ffffff;fill-opacity:1"
       y="-349"
       x="8">i_im_id: integer</text>
    <text
       id="text3096"
       style="font-size:10.12500000000000000px;text-anchor:start;font-family:Nimbus Roman No9 L;fill:#ffffff;fill-opacity:1"
       y="-337"
       x="8">i_name: character varying(24)</text>
    <text
       id="text3098"
       style="font-size:10.12500000000000000px;text-anchor:start;font-family:Nimbus Roman No9 L;fill:#ffffff;fill-opacity:1"
       y="-325"
       x="8">i_price: real</text>
    <text
       id="text3100"
       style="font-size:10.12500000000000000px;text-anchor:start;font-family:Nimbus Roman No9 L;fill:#ffffff;fill-opacity:1"
       y="-313"
       x="8">i_data: character varying(50)</text>
  </g>
  <g
     class="node"
     id="node5"
     transform="matrix(1.33333,0,0,1.33333,49.650451,712.65521)">
    <title
       id="title3103">new_order</title>
    <polygon
       id="polygon3105"
       points="55,-217 55,-281 139,-281 139,-217 55,-217 "
       style="fill:none;stroke:#ffffff;stroke-opacity:1" />
    <text
       id="text3107"
       style="font-size:10.12500000000000000px;text-anchor:middle;font-family:Nimbus Roman No9 L;fill:#ffffff;fill-opacity:1"
       y="-267"
       x="97">new_order</text>
    <polyline
       id="polyline3109"
       points="55,-261 139,-261 "
       style="fill:none;stroke:#ffffff;stroke-opacity:1" />
    <text
       id="text3111"
       style="font-size:10.12500000000000000px;text-anchor:start;font-family:Nimbus Roman No9 L;fill:#ffffff;fill-opacity:1"
       y="-247"
       x="63">no_o_id: integer</text>
    <text
       id="text3113"
       style="font-size:10.12500000000000000px;text-anchor:start;font-family:Nimbus Roman No9 L;fill:#ffffff;fill-opacity:1"
       y="-235"
       x="63">no_d_id: integer</text>
    <text
       id="text3115"
       style="font-size:10.12500000000000000px;text-anchor:start;font-family:Nimbus Roman No9 L;fill:#ffffff;fill-opacity:1"
       y="-223"
       x="63">no_w_id: integer</text>
  </g>
  <polygon
     style="fill:none;stroke:#00ffff;stroke-opacity:1;stroke-width:3.00000750000000016;stroke-miterlimit:4;stroke-dasharray:none"
     points="415,-397 415,-545 608,-545 608,-397 415,-397 "
     id="polygon3120"
     transform="matrix(1.33333,0,0,1.33333,156.62283,753.91599)" />
  <text
     x="837.95447"
     y="45.917759"
     style="font-size:13.49996662px;text-anchor:middle;fill:#ffffff;fill-opacity:1;font-family:Nimbus Roman No9 L"
     id="text3122">order_line</text>
  <polyline
     style="fill:none;stroke:#ffffff;stroke-opacity:1"
     points="415,-525 608,-525 "
     id="polyline3124"
     transform="matrix(1.33333,0,0,1.33333,156.62283,753.91599)" />
  <text
     x="719.28809"
     y="72.584358"
     style="font-size:13.49996662px;text-anchor:start;fill:#ffffff;fill-opacity:1;font-family:Nimbus Roman No9 L"
     id="text3126">ol_o_id: integer</text>
  <text
     x="719.28809"
     y="88.58432"
     style="font-size:13.49996662px;text-anchor:start;fill:#ffffff;fill-opacity:1;font-family:Nimbus Roman No9 L"
     id="text3128">ol_d_id: integer</text>
  <text
     x="719.28809"
     y="104.58428"
     style="font-size:13.49996662px;text-anchor:start;fill:#ffffff;fill-opacity:1;font-family:Nimbus Roman No9 L"
     id="text3130">ol_w_id: integer</text>
  <text
     x="719.28809"
     y="120.58424"
     style="font-size:13.49996662px;text-anchor:start;fill:#ffffff;fill-opacity:1;font-family:Nimbus Roman No9 L"
     id="text3132">ol_number: integer</text>
  <text
     x="719.28809"
     y="136.5842"
     style="font-size:13.49996662px;text-anchor:start;fill:#ffffff;fill-opacity:1;font-family:Nimbus Roman No9 L"
     id="text3134">ol_i_id: integer</text>
  <text
     x="719.28809"
     y="152.58417"
     style="font-size:13.49996662px;text-anchor:start;fill:#ffffff;fill-opacity:1;font-family:Nimbus Roman No9 L"
     id="text3136">ol_supply_w_id: integer</text>
  <text
     x="719.28809"
     y="168.58412"
     style="font-size:13.49996662px;text-anchor:start;fill:#ffffff;fill-opacity:1;font-family:Nimbus Roman No9 L"
     id="text3138">ol_delivery_d: timestamp without time zone</text>
  <text
     x="719.28809"
     y="184.58408"
     style="font-size:13.49996662px;text-anchor:start;fill:#ffffff;fill-opacity:1;font-family:Nimbus Roman No9 L"
     id="text3140">ol_quantity: real</text>
  <text
     x="719.28809"
     y="200.58405"
     style="font-size:13.49996662px;text-anchor:start;fill:#ffffff;fill-opacity:1;font-family:Nimbus Roman No9 L"
     id="text3142">ol_amount: real</text>
  <text
     x="719.28809"
     y="216.584"
     style="font-size:13.49996662px;text-anchor:start;fill:#ffffff;fill-opacity:1;font-family:Nimbus Roman No9 L"
     id="text3144">ol_dist_info: character varying(24)</text>
  <g
     class="node"
     id="node7"
     transform="matrix(1.33333,0,0,1.33333,-433.25345,616.38007)">
    <title
       id="title3147">orders</title>
    <polygon
       id="polygon3149"
       points="343,-1 343,-125 521,-125 521,-1 343,-1 "
       style="fill:none;stroke:#ffffff;stroke-opacity:1" />
    <text
       id="text3151"
       style="font-size:10.12500000000000000px;text-anchor:middle;font-family:Nimbus Roman No9 L;fill:#ffffff;fill-opacity:1"
       y="-111"
       x="432">orders</text>
    <polyline
       id="polyline3153"
       points="343,-105 521,-105 "
       style="fill:none;stroke:#ffffff;stroke-opacity:1" />
    <text
       id="text3155"
       style="font-size:10.12500000000000000px;text-anchor:start;font-family:Nimbus Roman No9 L;fill:#ffffff;fill-opacity:1"
       y="-91"
       x="351">o_id: integer</text>
    <text
       id="text3157"
       style="font-size:10.12500000000000000px;text-anchor:start;font-family:Nimbus Roman No9 L;fill:#ffffff;fill-opacity:1"
       y="-79"
       x="351">o_d_id: integer</text>
    <text
       id="text3159"
       style="font-size:10.12500000000000000px;text-anchor:start;font-family:Nimbus Roman No9 L;fill:#ffffff;fill-opacity:1"
       y="-67"
       x="351">o_w_id: integer</text>
    <text
       id="text3161"
       style="font-size:10.12500000000000000px;text-anchor:start;font-family:Nimbus Roman No9 L;fill:#ffffff;fill-opacity:1"
       y="-55"
       x="351">o_c_id: integer</text>
    <text
       id="text3163"
       style="font-size:10.12500000000000000px;text-anchor:start;font-family:Nimbus Roman No9 L;fill:#ffffff;fill-opacity:1"
       y="-43"
       x="351">o_entry_d: timestamp without time zone</text>
    <text
       id="text3165"
       style="font-size:10.12500000000000000px;text-anchor:start;font-family:Nimbus Roman No9 L;fill:#ffffff;fill-opacity:1"
       y="-31"
       x="351">o_carrier_id: integer</text>
    <text
       id="text3167"
       style="font-size:10.12500000000000000px;text-anchor:start;font-family:Nimbus Roman No9 L;fill:#ffffff;fill-opacity:1"
       y="-19"
       x="351">o_ol_cnt: integer</text>
    <text
       id="text3169"
       style="font-size:10.12500000000000000px;text-anchor:start;font-family:Nimbus Roman No9 L;fill:#ffffff;fill-opacity:1"
       y="-7"
       x="351">o_all_local: real</text>
  </g>
  <polygon
     style="fill:none;stroke:#00ffff;stroke-opacity:1;stroke-width:3.00000750000000016;stroke-miterlimit:4;stroke-dasharray:none"
     points="343,-145 343,-377 489,-377 489,-145 343,-145 "
     id="polygon3174"
     transform="matrix(1.33333,0,0,1.33333,113.83388,786.0077)" />
  <text
     x="668.49915"
     y="302.00891"
     style="font-size:13.49996662px;text-anchor:middle;fill:#ffffff;fill-opacity:1;font-family:Nimbus Roman No9 L"
     id="text3176">stock</text>
  <polyline
     style="fill:none;stroke:#ffffff;stroke-opacity:1"
     points="343,-357 489,-357 "
     id="polyline3178"
     transform="matrix(1.33333,0,0,1.33333,113.83388,786.0077)" />
  <text
     x="581.8327"
     y="328.67551"
     style="font-size:13.49996662px;text-anchor:start;fill:#ffffff;fill-opacity:1;font-family:Nimbus Roman No9 L"
     id="text3180">s_i_id: integer</text>
  <text
     x="581.8327"
     y="344.67548"
     style="font-size:13.49996662px;text-anchor:start;fill:#ffffff;fill-opacity:1;font-family:Nimbus Roman No9 L"
     id="text3182">s_w_id: integer</text>
  <text
     x="581.8327"
     y="360.67542"
     style="font-size:13.49996662px;text-anchor:start;fill:#ffffff;fill-opacity:1;font-family:Nimbus Roman No9 L"
     id="text3184">s_quantity: real</text>
  <text
     x="581.8327"
     y="376.67538"
     style="font-size:13.49996662px;text-anchor:start;fill:#ffffff;fill-opacity:1;font-family:Nimbus Roman No9 L"
     id="text3186">s_dist_01: character varying(24)</text>
  <text
     x="581.8327"
     y="392.67535"
     style="font-size:13.49996662px;text-anchor:start;fill:#ffffff;fill-opacity:1;font-family:Nimbus Roman No9 L"
     id="text3188">s_dist_02: character varying(24)</text>
  <text
     x="581.8327"
     y="408.67532"
     style="font-size:13.49996662px;text-anchor:start;fill:#ffffff;fill-opacity:1;font-family:Nimbus Roman No9 L"
     id="text3190">s_dist_03: character varying(24)</text>
  <text
     x="581.8327"
     y="424.67526"
     style="font-size:13.49996662px;text-anchor:start;fill:#ffffff;fill-opacity:1;font-family:Nimbus Roman No9 L"
     id="text3192">s_dist_04: character varying(24)</text>
  <text
     x="581.8327"
     y="440.67523"
     style="font-size:13.49996662px;text-anchor:start;fill:#ffffff;fill-opacity:1;font-family:Nimbus Roman No9 L"
     id="text3194">s_dist_05: character varying(24)</text>
  <text
     x="581.8327"
     y="456.6752"
     style="font-size:13.49996662px;text-anchor:start;fill:#ffffff;fill-opacity:1;font-family:Nimbus Roman No9 L"
     id="text3196">s_dist_06: character varying(24)</text>
  <text
     x="581.8327"
     y="472.67514"
     style="font-size:13.49996662px;text-anchor:start;fill:#ffffff;fill-opacity:1;font-family:Nimbus Roman No9 L"
     id="text3198">s_dist_07: character varying(24)</text>
  <text
     x="581.8327"
     y="488.67511"
     style="font-size:13.49996662px;text-anchor:start;fill:#ffffff;fill-opacity:1;font-family:Nimbus Roman No9 L"
     id="text3200">s_dist_08: character varying(24)</text>
  <text
     x="581.8327"
     y="504.67508"
     style="font-size:13.49996662px;text-anchor:start;fill:#ffffff;fill-opacity:1;font-family:Nimbus Roman No9 L"
     id="text3202">s_dist_09: character varying(24)</text>
  <text
     x="581.8327"
     y="520.67505"
     style="font-size:13.49996662px;text-anchor:start;fill:#ffffff;fill-opacity:1;font-family:Nimbus Roman No9 L"
     id="text3204">s_dist_10: character varying(24)</text>
  <text
     x="581.8327"
     y="536.67499"
     style="font-size:13.49996662px;text-anchor:start;fill:#ffffff;fill-opacity:1;font-family:Nimbus Roman No9 L"
     id="text3206">s_ytd: numeric(16,8)</text>
  <text
     x="581.8327"
     y="552.67493"
     style="font-size:13.49996662px;text-anchor:start;fill:#ffffff;fill-opacity:1;font-family:Nimbus Roman No9 L"
     id="text3208">s_order_cnt: real</text>
  <text
     x="581.8327"
     y="568.67493"
     style="font-size:13.49996662px;text-anchor:start;fill:#ffffff;fill-opacity:1;font-family:Nimbus Roman No9 L"
     id="text3210">s_remote_cnt: real</text>
  <text
     x="581.8327"
     y="584.67487"
     style="font-size:13.49996662px;text-anchor:start;fill:#ffffff;fill-opacity:1;font-family:Nimbus Roman No9 L"
     id="text3212">s_data: character varying(50)</text>
  <g
     class="node"
     id="node9"
     transform="matrix(1.33333,0,0,1.33333,123.00294,752.38781)">
    <title
       id="title3215">warehouse</title>
    <polygon
       id="polygon3217"
       points="505,-145 505,-281 656,-281 656,-145 505,-145 "
       style="fill:none;stroke:#ffffff;stroke-opacity:1" />
    <text
       id="text3219"
       style="font-size:10.12500000000000000px;text-anchor:middle;font-family:Nimbus Roman No9 L;fill:#ffffff;fill-opacity:1"
       y="-267"
       x="580">warehouse</text>
    <polyline
       id="polyline3221"
       points="505,-261 656,-261 "
       style="fill:none;stroke:#ffffff;stroke-opacity:1" />
    <text
       id="text3223"
       style="font-size:10.12500000000000000px;text-anchor:start;font-family:Nimbus Roman No9 L;fill:#ffffff;fill-opacity:1"
       y="-247"
       x="512">w_id: integer</text>
    <text
       id="text3225"
       style="font-size:10.12500000000000000px;text-anchor:start;font-family:Nimbus Roman No9 L;fill:#ffffff;fill-opacity:1"
       y="-235"
       x="512">w_name: character varying(10)</text>
    <text
       id="text3227"
       style="font-size:10.12500000000000000px;text-anchor:start;font-family:Nimbus Roman No9 L;fill:#ffffff;fill-opacity:1"
       y="-223"
       x="512">w_street_1: character varying(20)</text>
    <text
       id="text3229"
       style="font-size:10.12500000000000000px;text-anchor:start;font-family:Nimbus Roman No9 L;fill:#ffffff;fill-opacity:1"
       y="-211"
       x="512">w_street_2: character varying(20)</text>
    <text
       id="text3231"
       style="font-size:10.12500000000000000px;text-anchor:start;font-family:Nimbus Roman No9 L;fill:#ffffff;fill-opacity:1"
       y="-199"
       x="512">w_city: character varying(20)</text>
    <text
       id="text3233"
       style="font-size:10.12500000000000000px;text-anchor:start;font-family:Nimbus Roman No9 L;fill:#ffffff;fill-opacity:1"
       y="-187"
       x="512">w_state: character(2)</text>
    <text
       id="text3235"
       style="font-size:10.12500000000000000px;text-anchor:start;font-family:Nimbus Roman No9 L;fill:#ffffff;fill-opacity:1"
       y="-175"
       x="512">w_zip: character(9)</text>
    <text
       id="text3237"
       style="font-size:10.12500000000000000px;text-anchor:start;font-family:Nimbus Roman No9 L;fill:#ffffff;fill-opacity:1"
       y="-163"
       x="512">w_tax: real</text>
    <text
       id="text3239"
       style="font-size:10.12500000000000000px;text-anchor:start;font-family:Nimbus Roman No9 L;fill:#ffffff;fill-opacity:1"
       y="-151"
       x="512">w_ytd: numeric(24,12)</text>
  </g>
</svg>
