"filesystem" "Random Read" "Random Write" "Read/Write (Reads)" "Read/Write (Writes)" "Sequential Read" "Sequential Write"
ext2 7.3 5.5 9.1 9.1 160.0 211.0
ext3 7.2 28.2 8.7 7.3 154.0 171.0
ext3-journal 7.3 9.5 9.9 7.1 157.0 85.1
ext3-writeback 7.2 4.6 12.0 9.0 154.0 156.0
ext4 7.4 5.8 9.3 9.3 156.0 315.0
jfs 7.3 3.8 11.0 8.1 167.0 282.0
reiserfs 7.3 47.4 9.0 9.2 157.0 46.1
xfs 7.4 40.9 12.4 9.4 158.0 291.0
