"filesystem" "Random Read" "Random Write" "Read/Write (Reads)" "Read/Write (Writes)" "Sequential Read" "Sequential Write"
1-disk-raid0.data:ext4 2.2 NA 7.7 7.7 95.1 89.9
2-disk-raid0.data:ext4 4.4 NA 13.6 13.6 201 100
4-disk-raid0.data:ext4 7.8 NA 23.9 23.9 230 214
