test "w/1 disk" "w/2 disks" "w/3 disks" "w/4 disks"
"Random Read" 35.75 69.0 95.5 111.375
"Random Write" 68.375 117.125 167.5 212.125
"Read/Write Mix" 148.2 312.166666667 463.5 588.25
"Sequential Read" 1177.75 1281.125 2134.25 1865.375
"Sequential Write" 1473.0 1935.875 3072.25 3787.875
